Machine Learning Predictions
…
Eliminated names and observations numbers as they are irrelevant for prediction. Also eliminated timestamps and windows variables because they are irrelevant in this application of machine learning algorithms since forecasting will not be used. Finally, eliminated average, variance, standard deviation, max, min, amplitude, skewness and kurtosis features since they do not exist for every variables.

data_train <- select(data_train, -X, -user_name, -raw_timestamp_part_1, -raw_timestamp_part_2, -cvtd_timestamp, -new_window, -num_window) 
data_val <- select(data_val, -X, -user_name, -raw_timestamp_part_1, -raw_timestamp_part_2, -cvtd_timestamp, -new_window, -num_window) 

drops <- c(grep("^avg",names(data_train), value = TRUE), grep("^var",names(data_train), value = TRUE), 
           grep("^stddev",names(data_train), value = TRUE), grep("^max",names(data_train), value = TRUE), 
           grep("^min",names(data_train), value = TRUE), grep("^amplitude",names(data_train), value = TRUE),
           grep("^skewness",names(data_train), value = TRUE), grep("^kurtosis",names(data_train), value = TRUE))

data_train <-  data_train[ , !(names(data_train) %in% drops)]
data_val <-  data_val[ , !(names(data_val) %in% drops)]
data_train

## # A tibble: 14,718 x 53
##    roll_belt pitch_belt yaw_belt total_accel_belt gyros_belt_x
##        <dbl>      <dbl>    <dbl>            <int>        <dbl>
##  1      1.41       8.07    -94.4                3       0.    
##  2      1.41       8.07    -94.4                3       0.0200
##  3      1.42       8.07    -94.4                3       0.    
##  4      1.48       8.05    -94.4                3       0.0200
##  5      1.48       8.07    -94.4                3       0.0200
##  6      1.45       8.06    -94.4                3       0.0200
##  7      1.45       8.17    -94.4                3       0.0300
##  8      1.45       8.18    -94.4                3       0.0300
##  9      1.43       8.18    -94.4                3       0.0200
## 10      1.42       8.20    -94.4                3       0.0200
## # ... with 14,708 more rows, and 48 more variables: gyros_belt_y <dbl>,
## #   gyros_belt_z <dbl>, accel_belt_x <int>, accel_belt_y <int>,
## #   accel_belt_z <int>, magnet_belt_x <int>, magnet_belt_y <int>,
## #   magnet_belt_z <int>, roll_arm <dbl>, pitch_arm <dbl>, yaw_arm <dbl>,
## #   total_accel_arm <int>, gyros_arm_x <dbl>, gyros_arm_y <dbl>,
## #   gyros_arm_z <dbl>, accel_arm_x <int>, accel_arm_y <int>,
## #   accel_arm_z <int>, magnet_arm_x <int>, magnet_arm_y <int>,
## #   magnet_arm_z <int>, roll_dumbbell <dbl>, pitch_dumbbell <dbl>,
## #   yaw_dumbbell <dbl>, total_accel_dumbbell <int>,
…
